^D:\SENTENCE-SENTIMENTS\CLOUD-COMPUTING-BOILERPLATE\FRAMEWORK\SOURCE\REQUEST.CPP
/c /I"D:\SENTENCE-SENTIMENTS\CLOUD-COMPUTING-BOILERPLATE\FRAMEWORK\INCLUDE" /IC:\BOOST_1_69_0 /Zi /nologo /W3 /WX- /diagnostics:classic /Od /Ob0 /Oy- /D WIN32 /D _WINDOWS /D "CMAKE_INTDIR=\"Debug\"" /D _MBCS /Gm- /EHsc /RTC1 /MDd /GS /fp:precise /Zc:wchar_t /Zc:forScope /Zc:inline /GR /Fo"FRAMEWORK.DIR\DEBUG\\" /Fd"FRAMEWORK.DIR\DEBUG\FRAMEWORK.PDB" /Gd /TP /analyze- D:\SENTENCE-SENTIMENTS\CLOUD-COMPUTING-BOILERPLATE\FRAMEWORK\SOURCE\REQUEST.CPP
^D:\SENTENCE-SENTIMENTS\CLOUD-COMPUTING-BOILERPLATE\FRAMEWORK\SOURCE\RESPONSE.CPP
/c /I"D:\SENTENCE-SENTIMENTS\CLOUD-COMPUTING-BOILERPLATE\FRAMEWORK\INCLUDE" /IC:\BOOST_1_69_0 /Zi /nologo /W3 /WX- /diagnostics:classic /Od /Ob0 /Oy- /D WIN32 /D _WINDOWS /D "CMAKE_INTDIR=\"Debug\"" /D _MBCS /Gm- /EHsc /RTC1 /MDd /GS /fp:precise /Zc:wchar_t /Zc:forScope /Zc:inline /GR /Fo"FRAMEWORK.DIR\DEBUG\\" /Fd"FRAMEWORK.DIR\DEBUG\FRAMEWORK.PDB" /Gd /TP /analyze- D:\SENTENCE-SENTIMENTS\CLOUD-COMPUTING-BOILERPLATE\FRAMEWORK\SOURCE\RESPONSE.CPP
